Single cycle CPU (ALU+Load+Store)/cpu_tb.vcd
$date
	Sun Nov  6 11:01:40 2022
$end
$version
	Icarus Verilog
$end
$timescale
	1ps
$end
$scope module cpu_tb $end
$var wire 32 ! idata [31:0] $end
$var wire 32 " iaddr [31:0] $end
$var wire 4 # dwe [3:0] $end
$var wire 32 $ dwdata [31:0] $end
$var wire 32 % drdata [31:0] $end
$var wire 32 & daddr [31:0] $end
$var reg 1 ' clk $end
$var reg 32 ( dtmp [31:0] $end
$var reg 32 ) exp_reg [31:0] $end
$var reg 1 * reset $end
$var integer 32 + exp_file [31:0] $end
$var integer 32 , fail [31:0] $end
$var integer 32 - i [31:0] $end
$var integer 32 . log_file [31:0] $end
$var integer 32 / s [31:0] $end
$scope module u1 $end
$var wire 1 ' clk $end
$var wire 32 0 dreg1 [31:0] $end
$var wire 32 1 dreg2 [31:0] $end
$var wire 1 * reset $end
$var wire 32 2 idata [31:0] $end
$var wire 32 3 drdata [31:0] $end
$var reg 32 4 daddr [31:0] $end
$var reg 32 5 daddr_load [31:0] $end
$var reg 32 6 daddr_store [31:0] $end
$var reg 32 7 dreg3 [31:0] $end
$var reg 32 8 dwdata [31:0] $end
$var reg 4 9 dwe [3:0] $end
$var reg 32 : iaddr [31:0] $end
$var reg 32 ; iaddrd [31:0] $end
$var reg 3 < iden3 [2:0] $end
$var reg 7 = iden7 [6:0] $end
$var reg 32 > imm_12 [31:0] $end
$var reg 32 ? imm_branch [31:0] $end
$var reg 32 @ imm_jal [31:0] $end
$var reg 32 A imm_s [31:0] $end
$var reg 32 B imm_store [31:0] $end
$var reg 32 C imm_us [31:0] $end
$var reg 7 D opcode [6:0] $end
$var reg 5 E rd [4:0] $end
$var reg 1 F regload $end
$var reg 5 G rs1 [4:0] $end
$var reg 5 H rs2 [4:0] $end
$var reg 5 I shamt [4:0] $end
$var integer 32 J i [31:0] $end
$upscope $end
$scope module u2 $end
$var wire 32 K iaddr [31:0] $end
$var wire 32 L idata [31:0] $end
$upscope $end
$scope module u3 $end
$var wire 1 ' clk $end
$var wire 32 M daddr [31:0] $end
$var wire 32 N dwdata [31:0] $end
$var wire 4 O dwe [3:0] $end
$var wire 32 P drdata [31:0] $end
$var wire 30 Q a [29:0] $end
$upscope $end
$upscope $end
$enddefinitions $end
#0
$dumpvars
bx Q
bx P
bx O
bx N
bx M
b10000001100001110000010010011 L
b0 K
b100000 J
bx I
b0 H
b0 G
xF
b0 E
bx D
bx C
bx B
bx A
bx @
bx ?
bx >
bx =
bx <
b0 ;
b0 :
bx 9
bx 8
bx 7
bx 6
bx 5
bx 4
bx 3
b10000001100001110000010010011 2
b0 1
b0 0
bx /
bx .
bx -
bx ,
bx +
1*
bx )
bx (
1'
bx &
bx %
bx $
bx #
b0 "
b10000001100001110000010010011 !
$end
#5000
0'
#10000
b100000 J
1'
#15000
0'
#20000
b100000 J
1'
#25000
0'
#30000
b100000 J
1'
#35000
0'
#40000
b100000 J
1'
#45000
0'
#50000
b100000 J
1'
#55000
0'
#60000
b100000 J
1'
#65000
0'
#70000
b100000 J
1'
#75000
0'
#80000
b100000 J
1'
#85000
0'
#90000
b100000 J
1'
#95000
0'
#100000
b0 %
b0 3
b0 P
b0 Q
b1000000110000000100000011 $
b1000000110000000100000011 8
b1000000110000000100000011 N
b0 &
b0 4
b0 M
b100000011 1
b100000001000000100011 !
b100000001000000100011 2
b100000001000000100011 L
b0 0
b100 "
b100 :
b100 K
b0 -
b1000 ;
b100000011 7
b11 #
b11 9
b11 O
0F
b1 5
b0 6
b0 =
b1 <
b1100000000000 @
b100000001 >
b0 ?
b1 I
b1 C
b1 A
b0 B
b1 H
b0 E
b0 G
b100011 D
1'
b10000000000000000000000000000100 +
b10000000000000000000000000000011 .
0*
#105000
0'
#110000
b10 Q
b1100 ;
b11000000110000001100000011 $
b11000000110000001100000011 8
b11000000110000001100000011 N
b1000 &
b1000 4
b1000 M
b1000 6
b0 <
b100000000000 @
b100000000 >
b1000 ?
b1000 B
b1000 E
b100000000010000100011 !
b100000000010000100011 2
b100000000010000100011 L
b1000 "
b1000 :
b1000 K
b1 #
b1 9
b1 O
b1 -
b0 %
b0 3
b0 P
1'
#115000
0'
#120000
b0 Q
b10000 ;
1F
b11 7
b0 &
b0 4
b0 M
b0 5
b10 6
b0 @
b0 >
b10 ?
b0 I
b0 C
b0 A
b10 B
b0 1
b0 H
b10 E
b11 D
b100000011 !
b100000011 2
b100000011 L
b1100 "
b1100 :
b1100 K
b0 #
b0 9
b0 O
b100000011 %
b100000011 3
b100000011 P
b10 -
1'
#125000
0'
#130000
b11 %
b11 3
b11 P
b10 Q
b10100 ;
b11 7
b1000 &
b1000 4
b1000 M
1F
b1000 5
b100 6
b10 <
b10000000001000 @
b100000000010 >
b100 ?
b1000 I
b1000 C
b1000 A
b100 B
b1000 H
b100 E
b100000000010001000000011 !
b100000000010001000000011 2
b100000000010001000000011 L
b10000 "
b10000 :
b10000 K
b11 -
1'
#135000
0'
#140000
b11000 ;
b0 7
1F
b10000000111 5
b10000000110 6
b100000 =
b0 <
b10000010000000100 @
b1000000010000010000 >
b110000000010 ?
b100 I
b10000000100 C
b10000000100 A
b10000000011 B
b11 1
b100 H
b11 E
b11 0
b10 G
b110011 D
b1000000010000010000000110110011 !
b1000000010000010000000110110011 2
b1000000010000010000000110110011 L
b10100 "
b10100 :
b10100 K
b100 -
1'
#145000
0'
#150000
b11100 ;
b100000011 $
b100000011 8
b100000011 N
b1111 #
b1111 9
b1111 O
0F
b1 5
b1000 6
b0 =
b10 <
b10100000000000 @
b100000010 >
b1000 ?
b1 I
b1 C
b1 A
b1000 B
b100000011 1
b1 H
b1000 E
b0 0
b0 G
b100011 D
b100000010010000100011 !
b100000010010000100011 2
b100000010010000100011 L
b11000 "
b11000 :
b11000 K
b101 -
1'
#155000
0'
#160000
b0 Q
b100000 ;
1F
b100000011 7
b0 &
b0 4
b0 M
b0 5
b10 6
b1 <
b1000000000000 @
b1 >
b10 ?
b0 I
b0 C
b0 A
b10 B
b0 1
b0 H
b10 E
b11 D
b1000100000011 !
b1000100000011 2
b1000100000011 L
b11100 "
b11100 :
b11100 K
b0 #
b0 9
b0 O
b100000011 %
b100000011 3
b100000011 P
b110 -
1'
#165000
0'
#170000
b10 Q
b100100 ;
b1000 &
b1000 4
b1000 M
1F
b1000 5
b100 6
b10 <
b10000000001000 @
b100000000010 >
b100 ?
b1000 I
b1000 C
b1000 A
b100 B
b1000 H
b100 E
b100000000010001000000011 !
b100000000010001000000011 2
b100000000010001000000011 L
b100000 "
b100000 :
b100000 K
b111 -
1'
#175000
0'
#180000
b101000 ;
b0 7
1F
b10100000111 5
b10100001000 6
b100000 =
b0 <
b10000010000000100 @
b1000000010000010000 >
b110000000100 ?
b100 I
b10000000100 C
b10000000100 A
b10000000101 B
b100000011 1
b100 H
b101 E
b100000011 0
b10 G
b110011 D
b1000000010000010000001010110011 !
b1000000010000010000001010110011 2
b1000000010000010000001010110011 L
b100100 "
b100100 :
b100100 K
b1000 -
1'
#185000
0'
#190000
b101100 ;
1F
b101 5
b1010 6
b0 =
b11000100000000100 @
b10100011000 >
b1010 ?
b101 I
b101 C
b101 A
b1010 B
b0 1
b101 H
b1010 E
b0 0
b11 G
b10100011000010100110011 !
b10100011000010100110011 2
b10100011000010100110011 L
b101000 "
b101000 :
b101000 K
b1001 -
1'
#195000
0'
#200000
b110000 ;
0F
b0 5
b0 6
b0 @
b0 >
b0 ?
b0 I
b0 C
b0 A
b0 B
b0 H
b0 E
b0 G
b0 D
b0 !
b0 2
b0 L
b101100 "
b101100 :
b101100 K
b1010 -
1'
#205000
0'
#210000
b110100 ;
b110000 "
b110000 :
b110000 K
b1011 -
1'
#215000
0'
#220000
b111000 ;
b110100 "
b110100 :
b110100 K
b1100 -
1'
#225000
0'
#230000
b111100 ;
b111000 "
b111000 :
b111000 K
b1101 -
1'
#235000
0'
#240000
b1000000 ;
b111100 "
b111100 :
b111100 K
b1110 -
1'
#245000
0'
#250000
b1000100 ;
b1000000 "
b1000000 :
b1000000 K
b1111 -
1'
#255000
0'
#260000
b1001000 ;
b1000100 "
b1000100 :
b1000100 K
b10000 -
1'
#265000
0'
#270000
b0 Q
b1001100 ;
b0 $
b0 8
b0 N
b1111 #
b1111 9
b1111 O
b0 &
b0 4
b0 M
b10 <
b10000000000000 @
b10 >
b100011 D
b10000000100011 !
b10000000100011 2
b10000000100011 L
b1001000 "
b1001000 :
b1001000 K
b10001 -
1'
#275000
0'
#280000
b1 Q
b1010000 ;
b100000011 $
b100000011 8
b100000011 N
b100 &
b100 4
b100 M
b1 5
b100 6
b10100000000000 @
b100000010 >
b100 ?
b1 I
b1 C
b1 A
b100 B
b100000011 1
b1 H
b100 E
b100000010001000100011 !
b100000010001000100011 2
b100000010001000100011 L
b1001100 "
b1001100 :
b1001100 K
b1111 #
b1111 9
b1111 O
b0 %
b0 3
b0 P
b10010 -
1'
#285000
0'
#290000
b10 Q
b1010100 ;
b1000 &
b1000 4
b1000 M
b10 5
b1000 6
b10000000000010 @
b1000000010 >
b1000 ?
b10 I
b10 C
b10 A
b1000 B
b10 H
b1000 E
b1000000010010000100011 !
b1000000010010000100011 2
b1000000010010000100011 L
b1010000 "
b1010000 :
b1010000 K
b1111 #
b1111 9
b1111 O
b10011 -
b100000011 %
b100000011 3
b100000011 P
1'
#295000
0'
#300000
b0 %
b0 3
b0 P
b11 Q
b1011000 ;
b0 $
b0 8
b0 N
b1100 &
b1100 4
b1100 M
b1111 #
b1111 9
b1111 O
b11 5
b1100 6
b10100000000010 @
b1100000010 >
b1100 ?
b11 I
b11 C
b11 A
b1100 B
b0 1
b11 H
b1100 E
b1100000010011000100011 !
b1100000010011000100011 2
b1100000010011000100011 L
b1010100 "
b1010100 :
b1010100 K
b10100 -
1'
#305000
0'
#310000
b100 Q
b1011100 ;
b100000011 $
b100000011 8
b100000011 N
b10000 &
b10000 4
b10000 M
b1111 #
b1111 9
b1111 O
b100 5
b10000 6
b10000000000100 @
b10000000010 >
b10000 ?
b100 I
b100 C
b100 A
b10000 B
b100000011 1
b100 H
b10000 E
b10000000010100000100011 !
b10000000010100000100011 2
b10000000010100000100011 L
b1011000 "
b1011000 :
b1011000 K
b10101 -
1'
#315000
0'
#320000
b101 Q
b1100000 ;
b0 $
b0 8
b0 N
b10100 &
b10100 4
b10100 M
b101 5
b10100 6
b10100000000100 @
b10100000010 >
b10100 ?
b101 I
b101 C
b101 A
b10100 B
b0 1
b101 H
b10100 E
b10100000010101000100011 !
b10100000010101000100011 2
b10100000010101000100011 L
b1011100 "
b1011100 :
b1011100 K
b1111 #
b1111 9
b1111 O
b0 %
b0 3
b0 P
b10110 -
1'
#325000
0'
#330000
b110 Q
b1100100 ;
b11000 &
b11000 4
b11000 M
b1111 #
b1111 9
b1111 O
b110 5
b11000 6
b10000000000110 @
b11000000010 >
b11000 ?
b110 I
b110 C
b110 A
b11000 B
b110 H
b11000 E
b11000000010110000100011 !
b11000000010110000100011 2
b11000000010110000100011 L
b1100000 "
b1100000 :
b1100000 K
b10111 -
1'
#335000
0'
#340000
b111 Q
b1101000 ;
b11100 &
b11100 4
b11100 M
b1111 #
b1111 9
b1111 O
b111 5
b11100 6
b10100000000110 @
b11100000010 >
b11100 ?
b111 I
b111 C
b111 A
b11100 B
b111 H
b11100 E
b11100000010111000100011 !
b11100000010111000100011 2
b11100000010111000100011 L
b1100100 "
b1100100 :
b1100100 K
b11000 -
1'
#345000
0'
#350000
b1000 Q
b1101100 ;
b100000 &
b100000 4
b100000 M
b1111 #
b1111 9
b1111 O
b101000 5
b100000 6
b1 =
b10000000101000 @
b10100000000010 >
b100000 ?
b1000 I
b101000 C
b101000 A
b100000 B
b1000 H
b0 E
b10100000000010000000100011 !
b10100000000010000000100011 2
b10100000000010000000100011 L
b1101000 "
b1101000 :
b1101000 K
b11001 -
1'
#355000
0'
#360000
b1001 Q
b1110000 ;
b100100 &
b100100 4
b100100 M
b1111 #
b1111 9
b1111 O
b101001 5
b100100 6
b10100000101000 @
b10100100000010 >
b100100 ?
b1001 I
b101001 C
b101001 A
b100100 B
b1001 H
b100 E
b10100100000010001000100011 !
b10100100000010001000100011 2
b10100100000010001000100011 L
b1101100 "
b1101100 :
b1101100 K
b11010 -
1'
#365000
0'
#370000
b1010 Q
b1110100 ;
b101000 &
b101000 4
b101000 M
b1111 #
b1111 9
b1111 O
b101010 5
b101000 6
b10000000101010 @
b10101000000010 >
b101000 ?
b1010 I
b101010 C
b101010 A
b101000 B
b1010 H
b1000 E
b10101000000010010000100011 !
b10101000000010010000100011 2
b10101000000010010000100011 L
b1110000 "
b1110000 :
b1110000 K
b11011 -
1'
#375000
0'
#380000
b1011 Q
b1111000 ;
b101100 &
b101100 4
b101100 M
b1111 #
b1111 9
b1111 O
b101011 5
b101100 6
b10100000101010 @
b10101100000010 >
b101100 ?
b1011 I
b101011 C
b101011 A
b101100 B
b1011 H
b1100 E
b10101100000010011000100011 !
b10101100000010011000100011 2
b10101100000010011000100011 L
b1110100 "
b1110100 :
b1110100 K
b11100 -
1'
#385000
0'
#390000
b1100 Q
b1111100 ;
b110000 &
b110000 4
b110000 M
b1111 #
b1111 9
b1111 O
b101100 5
b110000 6
b10000000101100 @
b10110000000010 >
b110000 ?
b1100 I
b101100 C
b101100 A
b110000 B
b1100 H
b10000 E
b10110000000010100000100011 !
b10110000000010100000100011 2
b10110000000010100000100011 L
b1111000 "
b1111000 :
b1111000 K
b11101 -
1'
#395000
0'
#400000
b1101 Q
b10000000 ;
b110100 &
b110100 4
b110100 M
b1111 #
b1111 9
b1111 O
b101101 5
b110100 6
b10100000101100 @
b10110100000010 >
b110100 ?
b1101 I
b101101 C
b101101 A
b110100 B
b1101 H
b10100 E
b10110100000010101000100011 !
b10110100000010101000100011 2
b10110100000010101000100011 L
b1111100 "
b1111100 :
b1111100 K
b11110 -
1'
#405000
0'
#410000
b1110 Q
b10000100 ;
b111000 &
b111000 4
b111000 M
b1111 #
b1111 9
b1111 O
b101110 5
b111000 6
b10000000101110 @
b10111000000010 >
b111000 ?
b1110 I
b101110 C
b101110 A
b111000 B
b1110 H
b11000 E
b10111000000010110000100011 !
b10111000000010110000100011 2
b10111000000010110000100011 L
b10000000 "
b10000000 :
b10000000 K
b11111 -
1'
#415000
0'
#420000
b1111 Q
b10001000 ;
b111100 &
b111100 4
b111100 M
b1111 #
b1111 9
b1111 O
b101111 5
b111100 6
b10100000101110 @
b10111100000010 >
b111100 ?
b1111 I
b101111 C
b101111 A
b111100 B
b1111 H
b11100 E
b10111100000010111000100011 !
b10111100000010111000100011 2
b10111100000010111000100011 L
b10000100 "
b10000100 :
b10000100 K
b100000 -
1'
#425000
0'
#430000
b10000 Q
b10001100 ;
b1000000 &
b1000000 4
b1000000 M
b1111 #
b1111 9
b1111 O
b1010000 5
b1000000 6
b10 =
b10000001010000 @
b101000000000010 >
b1000000 ?
b10000 I
b1010000 C
b1010000 A
b1000000 B
b10000 H
b0 E
b101000000000010000000100011 !
b101000000000010000000100011 2
b101000000000010000000100011 L
b10001000 "
b10001000 :
b10001000 K
b100001 -
1'
#435000
0'
#440000
b10001 Q
b10010000 ;
b1000100 &
b1000100 4
b1000100 M
b1111 #
b1111 9
b1111 O
b1010001 5
b1000100 6
b10100001010000 @
b101000100000010 >
b1000100 ?
b10001 I
b1010001 C
b1010001 A
b1000100 B
b10001 H
b100 E
b101000100000010001000100011 !
b101000100000010001000100011 2
b101000100000010001000100011 L
b10001100 "
b10001100 :
b10001100 K
b100010 -
1'
#445000
0'
#450000
b10010 Q
b10010100 ;
b1001000 &
b1001000 4
b1001000 M
b1111 #
b1111 9
b1111 O
b1010010 5
b1001000 6
b10000001010010 @
b101001000000010 >
b1001000 ?
b10010 I
b1010010 C
b1010010 A
b1001000 B
b10010 H
b1000 E
b101001000000010010000100011 !
b101001000000010010000100011 2
b101001000000010010000100011 L
b10010000 "
b10010000 :
b10010000 K
b100011 -
1'
#455000
0'
#460000
b10011 Q
b10011000 ;
b1001100 &
b1001100 4
b1001100 M
b1111 #
b1111 9
b1111 O
b1010011 5
b1001100 6
b10100001010010 @
b101001100000010 >
b1001100 ?
b10011 I
b1010011 C
b1010011 A
b1001100 B
b10011 H
b1100 E
b101001100000010011000100011 !
b101001100000010011000100011 2
b101001100000010011000100011 L
b10010100 "
b10010100 :
b10010100 K
b100100 -
1'
#465000
0'
#470000
b10100 Q
b10011100 ;
b1010000 &
b1010000 4
b1010000 M
b1111 #
b1111 9
b1111 O
b1010100 5
b1010000 6
b10000001010100 @
b101010000000010 >
b1010000 ?
b10100 I
b1010100 C
b1010100 A
b1010000 B
b10100 H
b10000 E
b101010000000010100000100011 !
b101010000000010100000100011 2
b101010000000010100000100011 L
b10011000 "
b10011000 :
b10011000 K
b100101 -
1'
#475000
0'
#480000
b10101 Q
b10100000 ;
b1010100 &
b1010100 4
b1010100 M
b1111 #
b1111 9
b1111 O
b1010101 5
b1010100 6
b10100001010100 @
b101010100000010 >
b1010100 ?
b10101 I
b1010101 C
b1010101 A
b1010100 B
b10101 H
b10100 E
b101010100000010101000100011 !
b101010100000010101000100011 2
b101010100000010101000100011 L
b10011100 "
b10011100 :
b10011100 K
b100110 -
1'
#485000
0'
#490000
b10110 Q
b10100100 ;
b1011000 &
b1011000 4
b1011000 M
b1111 #
b1111 9
b1111 O
b1010110 5
b1011000 6
b10000001010110 @
b101011000000010 >
b1011000 ?
b10110 I
b1010110 C
b1010110 A
b1011000 B
b10110 H
b11000 E
b101011000000010110000100011 !
b101011000000010110000100011 2
b101011000000010110000100011 L
b10100000 "
b10100000 :
b10100000 K
b100111 -
1'
#495000
0'
#500000
b10111 Q
b10101000 ;
b1011100 &
b1011100 4
b1011100 M
b1111 #
b1111 9
b1111 O
b1010111 5
b1011100 6
b10100001010110 @
b101011100000010 >
b1011100 ?
b10111 I
b1010111 C
b1010111 A
b1011100 B
b10111 H
b11100 E
b101011100000010111000100011 !
b101011100000010111000100011 2
b101011100000010111000100011 L
b10100100 "
b10100100 :
b10100100 K
b101000 -
1'
#505000
0'
#510000
b11000 Q
b10101100 ;
b1100000 &
b1100000 4
b1100000 M
b1111 #
b1111 9
b1111 O
b1111000 5
b1100000 6
b11 =
b10000001111000 @
b111100000000010 >
b1100000 ?
b11000 I
b1111000 C
b1111000 A
b1100000 B
b11000 H
b0 E
b111100000000010000000100011 !
b111100000000010000000100011 2
b111100000000010000000100011 L
b10101000 "
b10101000 :
b10101000 K
b101001 -
1'
#515000
0'
#520000
b11001 Q
b10110000 ;
b1100100 &
b1100100 4
b1100100 M
b1111 #
b1111 9
b1111 O
b1111001 5
b1100100 6
b10100001111000 @
b111100100000010 >
b1100100 ?
b11001 I
b1111001 C
b1111001 A
b1100100 B
b11001 H
b100 E
b111100100000010001000100011 !
b111100100000010001000100011 2
b111100100000010001000100011 L
b10101100 "
b10101100 :
b10101100 K
b101010 -
1'
#525000
0'
#530000
b11010 Q
b10110100 ;
b1101000 &
b1101000 4
b1101000 M
b1111 #
b1111 9
b1111 O
b1111010 5
b1101000 6
b10000001111010 @
b111101000000010 >
b1101000 ?
b11010 I
b1111010 C
b1111010 A
b1101000 B
b11010 H
b1000 E
b111101000000010010000100011 !
b111101000000010010000100011 2
b111101000000010010000100011 L
b10110000 "
b10110000 :
b10110000 K
b101011 -
1'
#535000
0'
#540000
b11011 Q
b10111000 ;
b1101100 &
b1101100 4
b1101100 M
b1111 #
b1111 9
b1111 O
b1111011 5
b1101100 6
b10100001111010 @
b111101100000010 >
b1101100 ?
b11011 I
b1111011 C
b1111011 A
b1101100 B
b11011 H
b1100 E
b111101100000010011000100011 !
b111101100000010011000100011 2
b111101100000010011000100011 L
b10110100 "
b10110100 :
b10110100 K
b101100 -
1'
#545000
0'
#550000
b11100 Q
b10111100 ;
b1110000 &
b1110000 4
b1110000 M
b1111 #
b1111 9
b1111 O
b1111100 5
b1110000 6
b10000001111100 @
b111110000000010 >
b1110000 ?
b11100 I
b1111100 C
b1111100 A
b1110000 B
b11100 H
b10000 E
b111110000000010100000100011 !
b111110000000010100000100011 2
b111110000000010100000100011 L
b10111000 "
b10111000 :
b10111000 K
b101101 -
1'
#555000
0'
#560000
b11101 Q
b11000000 ;
b1110100 &
b1110100 4
b1110100 M
b1111 #
b1111 9
b1111 O
b1111101 5
b1110100 6
b10100001111100 @
b111110100000010 >
b1110100 ?
b11101 I
b1111101 C
b1111101 A
b1110100 B
b11101 H
b10100 E
b111110100000010101000100011 !
b111110100000010101000100011 2
b111110100000010101000100011 L
b10111100 "
b10111100 :
b10111100 K
b101110 -
1'
#565000
0'
#570000
b11110 Q
b11000100 ;
b1111000 &
b1111000 4
b1111000 M
b1111 #
b1111 9
b1111 O
b1111110 5
b1111000 6
b10000001111110 @
b111111000000010 >
b1111000 ?
b11110 I
b1111110 C
b1111110 A
b1111000 B
b11110 H
b11000 E
b111111000000010110000100011 !
b111111000000010110000100011 2
b111111000000010110000100011 L
b11000000 "
b11000000 :
b11000000 K
b101111 -
1'
#575000
0'
#580000
b11111 Q
b11001000 ;
b1111100 &
b1111100 4
b1111100 M
b1111 #
b1111 9
b1111 O
b1111111 5
b1111100 6
b10100001111110 @
b111111100000010 >
b1111100 ?
b11111 I
b1111111 C
b1111111 A
b1111100 B
b11111 H
b11100 E
b111111100000010111000100011 !
b111111100000010111000100011 2
b111111100000010111000100011 L
b11000100 "
b11000100 :
b11000100 K
b110000 -
1'
#585000
0'
#590000
b11001100 ;
b0 #
b0 9
b0 O
b0 5
b0 6
b0 =
b0 <
b0 @
b0 >
b0 ?
b0 I
b0 C
b0 A
b0 B
b0 H
b0 E
b0 D
b0 !
b0 2
b0 L
b11001000 "
b11001000 :
b11001000 K
b110001 -
1'
#595000
0'
#600000
b11010000 ;
b11001100 "
b11001100 :
b11001100 K
b110010 -
1'
#605000
0'
#610000
b11010100 ;
b11010000 "
b11010000 :
b11010000 K
b110011 -
1'
#615000
0'
#620000
b11011000 ;
b11010100 "
b11010100 :
b11010100 K
b110100 -
1'
#625000
0'
#630000
b11011100 ;
b11011000 "
b11011000 :
b11011000 K
b110101 -
1'
#635000
0'
#640000
b11100000 ;
b11011100 "
b11011100 :
b11011100 K
b110110 -
1'
#645000
0'
#650000
b11100100 ;
b11100000 "
b11100000 :
b11100000 K
b110111 -
1'
#655000
0'
#660000
b11101000 ;
b11100100 "
b11100100 :
b11100100 K
b111000 -
1'
#665000
0'
#670000
b11101100 ;
b11101000 "
b11101000 :
b11101000 K
b111001 -
1'
#675000
0'
#680000
b11110000 ;
b11101100 "
b11101100 :
b11101100 K
b111010 -
1'
#685000
0'
#690000
b11110100 ;
b11110000 "
b11110000 :
b11110000 K
b111011 -
1'
#695000
0'
#700000
b11111000 ;
b11110100 "
b11110100 :
b11110100 K
b111100 -
1'
#705000
0'
#710000
b11111100 ;
b11111000 "
b11111000 :
b11111000 K
b111101 -
1'
#715000
0'
#720000
b100000000 ;
b11111100 "
b11111100 :
b11111100 K
b111110 -
1'
#725000
0'
#730000
b100000100 ;
b100000000 "
b100000000 :
b100000000 K
b111111 -
1'
#735000
0'
#740000
b100001000 ;
b100000100 "
b100000100 :
b100000100 K
b1000000 -
1'
#745000
0'
#750000
b100001100 ;
b100001000 "
b100001000 :
b100001000 K
b1000001 -
1'
#755000
0'
#760000
b100010000 ;
b100001100 "
b100001100 :
b100001100 K
b1000010 -
1'
#765000
0'
#770000
b100010100 ;
b100010000 "
b100010000 :
b100010000 K
b1000011 -
1'
#775000
0'
#780000
b100011000 ;
b100010100 "
b100010100 :
b100010100 K
b1000100 -
1'
#785000
0'
#790000
b100011100 ;
b100011000 "
b100011000 :
b100011000 K
b1000101 -
1'
#795000
0'
#800000
b100100000 ;
b100011100 "
b100011100 :
b100011100 K
b1000110 -
1'
#805000
0'
#810000
b100100100 ;
b100100000 "
b100100000 :
b100100000 K
b1000111 -
1'
#815000
0'
#820000
b100101000 ;
b100100100 "
b100100100 :
b100100100 K
b1001000 -
1'
#825000
0'
#830000
b100101100 ;
b100101000 "
b100101000 :
b100101000 K
b1001001 -
1'
#835000
0'
#840000
b100110000 ;
b100101100 "
b100101100 :
b100101100 K
b1001010 -
1'
#845000
0'
#850000
b100110100 ;
b100110000 "
b100110000 :
b100110000 K
b1001011 -
1'
#855000
0'
#860000
b100111000 ;
b100110100 "
b100110100 :
b100110100 K
b1001100 -
1'
#865000
0'
#870000
b100111100 ;
b100111000 "
b100111000 :
b100111000 K
b1001101 -
1'
#875000
0'
#880000
b101000000 ;
b100111100 "
b100111100 :
b100111100 K
b1001110 -
1'
#885000
0'
#890000
b101000100 ;
b101000000 "
b101000000 :
b101000000 K
b1001111 -
1'
#895000
0'
#900000
b101001000 ;
b101000100 "
b101000100 :
b101000100 K
b1010000 -
1'
#905000
0'
#910000
b101001100 ;
b101001000 "
b101001000 :
b101001000 K
b1010001 -
1'
#915000
0'
#920000
b101010000 ;
b101001100 "
b101001100 :
b101001100 K
b1010010 -
1'
#925000
0'
#930000
b101010100 ;
b101010000 "
b101010000 :
b101010000 K
b1010011 -
1'
#935000
0'
#940000
b101011000 ;
b101010100 "
b101010100 :
b101010100 K
b1010100 -
1'
#945000
0'
#950000
b101011100 ;
b101011000 "
b101011000 :
b101011000 K
b1010101 -
1'
#955000
0'
#960000
b101100000 ;
b101011100 "
b101011100 :
b101011100 K
b1010110 -
1'
#965000
0'
#970000
b101100100 ;
b101100000 "
b101100000 :
b101100000 K
b1010111 -
1'
#975000
0'
#980000
b101101000 ;
b101100100 "
b101100100 :
b101100100 K
b1011000 -
1'
#985000
0'
#990000
b101101100 ;
b101101000 "
b101101000 :
b101101000 K
b1011001 -
1'
#995000
0'
#1000000
b101110000 ;
b101101100 "
b101101100 :
b101101100 K
b1011010 -
1'
#1005000
0'
#1010000
b101110100 ;
b101110000 "
b101110000 :
b101110000 K
b1011011 -
1'
#1015000
0'
#1020000
b101111000 ;
b101110100 "
b101110100 :
b101110100 K
b1011100 -
1'
#1025000
0'
#1030000
b101111100 ;
b101111000 "
b101111000 :
b101111000 K
b1011101 -
1'
#1035000
0'
#1040000
b110000000 ;
b101111100 "
b101111100 :
b101111100 K
b1011110 -
1'
#1045000
0'
#1050000
b110000100 ;
b110000000 "
b110000000 :
b110000000 K
b1011111 -
1'
#1055000
0'
#1060000
b110001000 ;
b110000100 "
b110000100 :
b110000100 K
b1100000 -
1'
#1065000
0'
#1070000
b110001100 ;
b110001000 "
b110001000 :
b110001000 K
b1100001 -
1'
#1075000
0'
#1080000
b110010000 ;
b110001100 "
b110001100 :
b110001100 K
b1100010 -
1'
#1085000
0'
#1090000
b110010100 ;
b110010000 "
b110010000 :
b110010000 K
b1100011 -
1'
#1095000
0'
#1100000
b110011000 ;
b110010100 "
b110010100 :
b110010100 K
b1100100 -
1'
#1105000
0'
#1110000
b110011100 ;
b110011000 "
b110011000 :
b110011000 K
b1100101 -
1'
#1115000
0'
#1120000
b110100000 ;
b110011100 "
b110011100 :
b110011100 K
b1100110 -
1'
#1125000
0'
#1130000
b110100100 ;
b110100000 "
b110100000 :
b110100000 K
b1100111 -
1'
#1135000
0'
#1140000
b110101000 ;
b110100100 "
b110100100 :
b110100100 K
b1101000 -
1'
#1145000
0'
#1150000
b110101100 ;
b110101000 "
b110101000 :
b110101000 K
b1101001 -
1'
#1155000
0'
#1160000
b110110000 ;
b110101100 "
b110101100 :
b110101100 K
b1101010 -
1'
#1165000
0'
#1170000
b110110100 ;
b110110000 "
b110110000 :
b110110000 K
b1101011 -
1'
#1175000
0'
#1180000
b110111000 ;
b110110100 "
b110110100 :
b110110100 K
b1101100 -
1'
#1185000
0'
#1190000
b110111100 ;
b110111000 "
b110111000 :
b110111000 K
b1101101 -
1'
#1195000
0'
#1200000
b111000000 ;
b110111100 "
b110111100 :
b110111100 K
b1101110 -
1'
#1205000
0'
#1210000
b111000100 ;
b111000000 "
b111000000 :
b111000000 K
b1101111 -
1'
#1215000
0'
#1220000
b111001000 ;
b111000100 "
b111000100 :
b111000100 K
b1110000 -
1'
#1225000
0'
#1230000
b111001100 ;
b111001000 "
b111001000 :
b111001000 K
b1110001 -
1'
#1235000
0'
#1240000
b111010000 ;
b111001100 "
b111001100 :
b111001100 K
b1110010 -
1'
#1245000
0'
#1250000
b111010100 ;
b111010000 "
b111010000 :
b111010000 K
b1110011 -
1'
#1255000
0'
#1260000
b111011000 ;
b111010100 "
b111010100 :
b111010100 K
b1110100 -
1'
#1265000
0'
#1270000
b111011100 ;
b111011000 "
b111011000 :
b111011000 K
b1110101 -
1'
#1275000
0'
#1280000
b111100000 ;
b111011100 "
b111011100 :
b111011100 K
b1110110 -
1'
#1285000
0'
#1290000
b111100100 ;
b111100000 "
b111100000 :
b111100000 K
b1110111 -
1'
#1295000
0'
#1300000
b111101000 ;
b111100100 "
b111100100 :
b111100100 K
b1111000 -
1'
#1305000
0'
#1310000
b111101100 ;
b111101000 "
b111101000 :
b111101000 K
b1111001 -
1'
#1315000
0'
#1320000
b111110000 ;
b111101100 "
b111101100 :
b111101100 K
b1111010 -
1'
#1325000
0'
#1330000
b111110100 ;
b111110000 "
b111110000 :
b111110000 K
b1111011 -
1'
#1335000
0'
#1340000
b111111000 ;
b111110100 "
b111110100 :
b111110100 K
b1111100 -
1'
#1345000
0'
#1350000
b111111100 ;
b111111000 "
b111111000 :
b111111000 K
b1111101 -
1'
#1355000
0'
#1360000
b1000000000 ;
b111111100 "
b111111100 :
b111111100 K
b1111110 -
1'
#1365000
0'
#1370000
b1000000100 ;
b1000000000 "
b1000000000 :
b1000000000 K
b1111111 -
1'
#1375000
0'
