Single Cycle CPU (Including Branch)/cpu_tb.vcd
$date
	Sun Nov  6 11:03:07 2022
$end
$version
	Icarus Verilog
$end
$timescale
	1ps
$end
$scope module cpu_tb $end
$var wire 32 ! idata [31:0] $end
$var wire 32 " iaddr [31:0] $end
$var wire 4 # dwe [3:0] $end
$var wire 32 $ dwdata [31:0] $end
$var wire 32 % drdata [31:0] $end
$var wire 32 & daddr [31:0] $end
$var reg 1 ' clk $end
$var reg 32 ( dtmp [31:0] $end
$var reg 32 ) exp_reg [31:0] $end
$var reg 1 * reset $end
$var integer 32 + exp_file [31:0] $end
$var integer 32 , fail [31:0] $end
$var integer 32 - i [31:0] $end
$var integer 32 . log_file [31:0] $end
$var integer 32 / s [31:0] $end
$scope module u1 $end
$var wire 1 ' clk $end
$var wire 1 * reset $end
$var wire 32 0 idata [31:0] $end
$var wire 32 1 drdata [31:0] $end
$var reg 3 2 caseflag [2:0] $end
$var reg 32 3 daddr [31:0] $end
$var reg 32 4 dreg1 [31:0] $end
$var reg 32 5 dreg2 [31:0] $end
$var reg 32 6 dreg3 [31:0] $end
$var reg 32 7 dwdata [31:0] $end
$var reg 4 8 dwe [3:0] $end
$var reg 6 9 i [5:0] $end
$var reg 32 : iaddr [31:0] $end
$var reg 32 ; iaddrd [31:0] $end
$var reg 32 < imm [31:0] $end
$var reg 32 = imm_s [31:0] $end
$var reg 32 > imm_us [31:0] $end
$var reg 6 ? instrno [5:0] $end
$var reg 5 @ rd [4:0] $end
$var reg 1 A regload $end
$var reg 5 B rs1 [4:0] $end
$var reg 5 C rs2 [4:0] $end
$var reg 5 D shamt [4:0] $end
$upscope $end
$scope module u2 $end
$var wire 32 E iaddr [31:0] $end
$var wire 32 F idata [31:0] $end
$upscope $end
$scope module u3 $end
$var wire 1 ' clk $end
$var wire 32 G daddr [31:0] $end
$var wire 32 H dwdata [31:0] $end
$var wire 4 I dwe [3:0] $end
$var wire 32 J drdata [31:0] $end
$var wire 30 K a [29:0] $end
$upscope $end
$upscope $end
$enddefinitions $end
#0
$dumpvars
b0 K
b0 J
b0 I
b0 H
b0 G
b100000000111110010011 F
b0 E
bx D
b0 C
b0 B
0A
b0 @
b0 ?
b0 >
b0 =
b0 <
b0 ;
b0 :
b100000 9
b0 8
b0 7
b0 6
b0 5
b0 4
b0 3
b0 2
b0 1
b100000000111110010011 0
bx /
bx .
bx -
bx ,
bx +
1*
bx )
bx (
1'
b0 &
b0 %
b0 $
b0 #
b0 "
b100000000111110010011 !
$end
#5000
0'
#10000
b100000 9
1'
#15000
0'
#20000
b100000 9
1'
#25000
0'
#30000
b100000 9
1'
#35000
0'
#40000
b100000 9
1'
#45000
0'
#50000
b100000 9
1'
#55000
0'
#60000
b100000 9
1'
#65000
0'
#70000
b100000 9
1'
#75000
0'
#80000
b100000 9
1'
#85000
0'
#90000
b100000 9
1'
#95000
0'
#100000
b10011 ?
b1 2
b1 D
b1 >
b1 =
b11111 @
b0 -
1'
b10000000000000000000000000000100 +
b10000000000000000000000000000011 .
0*
#105000
0'
#110000
b1 -
b10 2
1'
#115000
0'
#120000
b11 2
b10 -
1'
#125000
0'
#130000
b11 -
b100 2
b100 ;
1A
b1 6
1'
#135000
0'
#140000
b101 2
b100 -
1'
#145000
0'
#150000
b101 -
b0 >
b0 =
0A
b0 6
b0 @
b110 2
1'
#155000
0'
#160000
b10000000000000100010011 !
b10000000000000100010011 0
b10000000000000100010011 F
b100 "
b100 :
b100 E
b0 2
b110 -
1'
#165000
0'
#170000
b111 -
b1 2
b100 D
b100 >
b100 =
b10 @
1'
#175000
0'
#180000
b10 2
b1000 -
1'
#185000
0'
#190000
b1001 -
b11 2
1'
#195000
0'
#200000
b100 2
b1000 ;
1A
b100 6
b1010 -
1'
#205000
0'
#210000
b1011 -
b101 2
1'
#215000
0'
#220000
b0 >
b0 =
0A
b0 6
b0 @
b110 2
b1100 -
1'
#225000
0'
#230000
b1100010100000010010011 !
b1100010100000010010011 0
b1100010100000010010011 F
b1000 "
b1000 :
b1000 E
b1101 -
b0 2
1'
#235000
0'
#240000
b100 4
b10110 ?
b1 2
b11 D
b11 >
b11 =
b1 @
b10 B
b1110 -
1'
#245000
0'
#250000
b1111 -
b10 2
1'
#255000
0'
#260000
b11 2
b10000 -
1'
#265000
0'
#270000
b10001 -
b100 2
b1100 ;
1A
b111 6
1'
#275000
0'
#280000
b101 2
b10010 -
1'
#285000
0'
#290000
b10011 -
b0 >
b0 =
0A
b0 4
b0 6
b0 @
b0 B
b110 2
1'
#295000
0'
#300000
b10001000001000001001100011 !
b10001000001000001001100011 0
b10001000001000001001100011 F
b1100 "
b1100 :
b1100 E
b0 2
b10100 -
1'
#305000
0'
#310000
b100 5
b111 4
b10101 -
b101 ?
b1 2
b100100 <
b10 C
b1 B
1'
#315000
0'
#320000
b10 2
b10110 -
1'
#325000
0'
#330000
b10111 -
b11 2
1'
#335000
0'
#340000
b100 2
b10000 ;
b11000 -
1'
#345000
0'
#350000
b11001 -
b101 2
1'
#355000
0'
#360000
b0 <
b0 5
b0 4
b0 C
b0 B
b110 2
b11010 -
1'
#365000
0'
#370000
b100010100100001100011 !
b100010100100001100011 0
b100010100100001100011 F
b10000 "
b10000 :
b10000 E
b11011 -
b0 2
1'
#375000
0'
#380000
b111 5
b100 4
b111 ?
b1 2
b10000 <
b1 C
b10 B
b11100 -
1'
#385000
0'
#390000
b11101 -
b10 2
1'
#395000
0'
#400000
b11 2
b11110 -
1'
#405000
0'
#410000
b11111 -
b100 2
b100000 ;
1'
#415000
0'
#420000
b101 2
b100000 -
1'
#425000
0'
#430000
b100001 -
b0 <
b0 5
b0 4
b0 C
b0 B
b110 2
1'
#435000
0'
#440000
b110110011 !
b110110011 0
b110110011 F
b100000 "
b100000 :
b100000 E
b0 2
b100010 -
1'
#445000
0'
#450000
b100011 -
b11100 ?
b1 2
b11 @
1'
#455000
0'
#460000
b10 2
b100100 -
1'
#465000
0'
#470000
b100101 -
b11 2
1'
#475000
0'
#480000
b100 2
b100100 ;
1A
b100110 -
1'
#485000
0'
#490000
b100111 -
b101 2
1'
#495000
0'
#500000
0A
b0 @
b110 2
b101000 -
1'
#505000
0'
#510000
b100010000000000110011 !
b100010000000000110011 0
b100010000000000110011 F
b100100 "
b100100 :
b100100 E
b101001 -
b0 2
1'
#515000
0'
#520000
b111 5
b100 4
b1 2
b1 C
b10 B
b101010 -
1'
#525000
0'
#530000
b101011 -
b10 2
1'
#535000
0'
#540000
b11 2
b101100 -
1'
#545000
0'
#550000
b101101 -
b100 2
b101000 ;
1'
#555000
0'
#560000
b101 2
b101110 -
1'
#565000
0'
#570000
b101111 -
b0 5
b0 4
b0 C
b0 B
b110 2
1'
#575000
0'
#580000
b1100000001010001100011 !
b1100000001010001100011 0
b1100000001010001100011 F
b101000 "
b101000 :
b101000 E
b0 2
b110000 -
1'
#585000
0'
#590000
b110001 -
b110 ?
b1 2
b1000 <
b11 C
1'
#595000
0'
#600000
b10 2
b110010 -
1'
#605000
0'
#610000
b110011 -
b11 2
1'
#615000
0'
#620000
b100 2
b101100 ;
b110100 -
1'
#625000
0'
#630000
b110101 -
b101 2
1'
#635000
0'
#640000
b0 <
b0 C
b110 2
b110110 -
1'
#645000
0'
#650000
b11101010001100011 !
b11101010001100011 0
b11101010001100011 F
b101100 "
b101100 :
b101100 E
b110111 -
b0 2
1'
#655000
0'
#660000
b1000 ?
b1 2
b1000 <
b11 B
b111000 -
1'
#665000
0'
#670000
b111001 -
b10 2
1'
#675000
0'
#680000
b11 2
b111010 -
1'
#685000
0'
#690000
b111011 -
b100 2
b110100 ;
1'
#695000
0'
#700000
b101 2
b111100 -
1'
#705000
0'
#710000
b111101 -
b0 <
b0 B
b110 2
1'
#715000
0'
#720000
b0 !
b0 0
b0 F
b110100 "
b110100 :
b110100 E
b0 2
b111110 -
1'
#725000
0'
#730000
b0 ?
b111111 -
b111000 ;
b101 2
1'
#735000
0'
#740000
b110 2
b1000000 -
1'
#745000
0'
#750000
b111000 "
b111000 :
b111000 E
b1000001 -
b0 2
1'
#755000
0'
#760000
b111100 ;
b101 2
b1000010 -
1'
#765000
0'
#770000
b1000011 -
b110 2
1'
#775000
0'
#780000
b111100 "
b111100 :
b111100 E
b0 2
b1000100 -
1'
#785000
0'
#790000
b1000101 -
b1000000 ;
b101 2
1'
#795000
0'
#800000
b110 2
b1000110 -
1'
#805000
0'
#810000
b1000000 "
b1000000 :
b1000000 E
b1000111 -
b0 2
1'
#815000
0'
#820000
b1000100 ;
b101 2
b1001000 -
1'
#825000
0'
#830000
b1001001 -
b110 2
1'
#835000
0'
#840000
b1000100 "
b1000100 :
b1000100 E
b0 2
b1001010 -
1'
#845000
0'
#850000
b1001011 -
b1001000 ;
b101 2
1'
#855000
0'
#860000
b110 2
b1001100 -
1'
#865000
0'
#870000
b1001000 "
b1001000 :
b1001000 E
b1001101 -
b0 2
1'
#875000
0'
#880000
b1001100 ;
b101 2
b1001110 -
1'
#885000
0'
#890000
b1001111 -
b110 2
1'
#895000
0'
#900000
b1001100 "
b1001100 :
b1001100 E
b0 2
b1010000 -
1'
#905000
0'
#910000
b1010001 -
b1010000 ;
b101 2
1'
#915000
0'
#920000
b110 2
b1010010 -
1'
#925000
0'
#930000
b1010000 "
b1010000 :
b1010000 E
b1010011 -
b0 2
1'
#935000
0'
#940000
b1010100 ;
b101 2
b1010100 -
1'
#945000
0'
#950000
b1010101 -
b110 2
1'
#955000
0'
#960000
b1010100 "
b1010100 :
b1010100 E
b0 2
b1010110 -
1'
#965000
0'
#970000
b1010111 -
b1011000 ;
b101 2
1'
#975000
0'
#980000
b110 2
b1011000 -
1'
#985000
0'
#990000
b1011000 "
b1011000 :
b1011000 E
b1011001 -
b0 2
1'
#995000
0'
#1000000
b1011100 ;
b101 2
b1011010 -
1'
#1005000
0'
#1010000
b1011011 -
b110 2
1'
#1015000
0'
#1020000
b1011100 "
b1011100 :
b1011100 E
b0 2
b1011100 -
1'
#1025000
0'
#1030000
b1011101 -
b1100000 ;
b101 2
1'
#1035000
0'
#1040000
b110 2
b1011110 -
1'
#1045000
0'
#1050000
b10000000100011 !
b10000000100011 0
b10000000100011 F
b1100000 "
b1100000 :
b1100000 E
b1011111 -
b0 2
1'
#1055000
0'
#1060000
b10010 ?
b1 2
b1100000 -
1'
#1065000
0'
#1070000
b1100001 -
b10 2
1'
#1075000
0'
#1080000
b11 2
b1111 #
b1111 8
b1111 I
b1100010 -
1'
#1085000
0'
#1090000
b1100011 -
b100 2
b1100100 ;
1'
#1095000
0'
#1100000
b101 2
b1100100 -
1'
#1105000
0'
#1110000
b1100101 -
b0 #
b0 8
b0 I
b110 2
1'
#1115000
0'
#1120000
b100000010001000100011 !
b100000010001000100011 0
b100000010001000100011 F
b1100100 "
b1100100 :
b1100100 E
b0 2
b1100110 -
1'
#1125000
0'
#1130000
b111 5
b1100111 -
b1 2
b100 <
b1 C
1'
#1135000
0'
#1140000
b1 K
b10 2
b100 &
b100 3
b100 G
b1101000 -
1'
#1145000
0'
#1150000
b1101001 -
b11 2
b1111 #
b1111 8
b1111 I
1'
#1155000
0'
#1160000
b100 2
b1101000 ;
b111 $
b111 7
b111 H
b1101010 -
1'
#1165000
0'
#1170000
b1101011 -
b111 %
b111 1
b111 J
b101 2
1'
#1175000
0'
#1180000
b0 %
b0 1
b0 J
b0 K
b0 &
b0 3
b0 G
b0 <
b0 #
b0 8
b0 I
b0 5
b0 C
b110 2
b1101100 -
1'
#1185000
0'
#1190000
b1000000010010000100011 !
b1000000010010000100011 0
b1000000010010000100011 F
b1101000 "
b1101000 :
b1101000 E
b1101101 -
b0 2
1'
#1195000
0'
#1200000
b100 5
b1 2
b1000 <
b10 C
b1101110 -
1'
#1205000
0'
#1210000
b10 K
b1101111 -
b10 2
b1000 &
b1000 3
b1000 G
1'
#1215000
0'
#1220000
b11 2
b1111 #
b1111 8
b1111 I
b1110000 -
1'
#1225000
0'
#1230000
b1110001 -
b100 %
b100 1
b100 J
b100 2
b1101100 ;
b100 $
b100 7
b100 H
1'
#1235000
0'
#1240000
b101 2
b1110010 -
1'
#1245000
0'
#1250000
b0 %
b0 1
b0 J
b0 K
b1110011 -
b0 &
b0 3
b0 G
b0 <
b0 #
b0 8
b0 I
b0 5
b0 C
b110 2
1'
#1255000
0'
#1260000
b1100000010011000100011 !
b1100000010011000100011 0
b1100000010011000100011 F
b1101100 "
b1101100 :
b1101100 E
b0 2
b1110100 -
1'
#1265000
0'
#1270000
b1110101 -
b1 2
b1100 <
b11 C
1'
#1275000
0'
#1280000
b11 K
b10 2
b1100 &
b1100 3
b1100 G
b1110110 -
1'
#1285000
0'
#1290000
b1110111 -
b100 %
b100 1
b100 J
b11 2
b1111 #
b1111 8
b1111 I
1'
#1295000
0'
#1300000
b100 2
b1110000 ;
b0 $
b0 7
b0 H
b1111000 -
1'
#1305000
0'
#1310000
b1111001 -
b0 %
b0 1
b0 J
b101 2
1'
#1315000
0'
#1320000
b0 K
b0 &
b0 3
b0 G
b0 <
b0 #
b0 8
b0 I
b0 C
b110 2
b1111010 -
1'
#1325000
0'
#1330000
b10000000010100000100011 !
b10000000010100000100011 0
b10000000010100000100011 F
b1110000 "
b1110000 :
b1110000 E
b1111011 -
b0 2
1'
#1335000
0'
#1340000
b1 2
b10000 <
b100 C
b1111100 -
1'
#1345000
0'
#1350000
b100 K
b1111101 -
b10 2
b10000 &
b10000 3
b10000 G
1'
#1355000
0'
#1360000
b11 2
b1111 #
b1111 8
b1111 I
b1111110 -
1'
#1365000
0'
#1370000
b1111111 -
b100 2
b1110100 ;
1'
#1375000
0'
#1380000
b101 2
b10000000 -
1'
#1385000
0'
#1390000
b0 K
b10000001 -
b0 &
b0 3
b0 G
b0 <
b0 #
b0 8
b0 I
b0 C
b110 2
1'
#1395000
0'
#1400000
b10100000010101000100011 !
b10100000010101000100011 0
b10100000010101000100011 F
b1110100 "
b1110100 :
b1110100 E
b0 2
b10000010 -
1'
#1405000
0'
#1410000
b10000011 -
b1 2
b10100 <
b101 C
1'
#1415000
0'
#1420000
b101 K
b10 2
b10100 &
b10100 3
b10100 G
b10000100 -
1'
#1425000
0'
#1430000
b10000101 -
b11 2
b1111 #
b1111 8
b1111 I
1'
#1435000
0'
#1440000
b100 2
b1111000 ;
b10000110 -
1'
#1445000
0'
#1450000
b10000111 -
b101 2
1'
#1455000
0'
#1460000
b0 K
b0 &
b0 3
b0 G
b0 <
b0 #
b0 8
b0 I
b0 C
b110 2
b10001000 -
1'
#1465000
0'
#1470000
b11000000010110000100011 !
b11000000010110000100011 0
b11000000010110000100011 F
b1111000 "
b1111000 :
b1111000 E
b10001001 -
b0 2
1'
#1475000
0'
#1480000
b1 2
b11000 <
b110 C
b10001010 -
1'
#1485000
0'
#1490000
b110 K
b10001011 -
b10 2
b11000 &
b11000 3
b11000 G
1'
#1495000
0'
#1500000
b11 2
b1111 #
b1111 8
b1111 I
b10001100 -
1'
#1505000
0'
#1510000
b10001101 -
b100 2
b1111100 ;
1'
#1515000
0'
#1520000
b101 2
b10001110 -
1'
#1525000
0'
#1530000
b0 K
b10001111 -
b0 &
b0 3
b0 G
b0 <
b0 #
b0 8
b0 I
b0 C
b110 2
1'
#1535000
0'
#1540000
b11100000010111000100011 !
b11100000010111000100011 0
b11100000010111000100011 F
b1111100 "
b1111100 :
b1111100 E
b0 2
b10010000 -
1'
#1545000
0'
#1550000
b10010001 -
b1 2
b11100 <
b111 C
1'
#1555000
0'
#1560000
b111 K
b10 2
b11100 &
b11100 3
b11100 G
b10010010 -
1'
#1565000
0'
#1570000
b10010011 -
b11 2
b1111 #
b1111 8
b1111 I
1'
#1575000
0'
#1580000
b100 2
b10000000 ;
b10010100 -
1'
#1585000
0'
#1590000
b10010101 -
b101 2
1'
#1595000
0'
#1600000
b0 K
b0 &
b0 3
b0 G
b0 <
b0 #
b0 8
b0 I
b0 C
b110 2
b10010110 -
1'
#1605000
0'
#1610000
b10100000000010000000100011 !
b10100000000010000000100011 0
b10100000000010000000100011 F
b10000000 "
b10000000 :
b10000000 E
b10010111 -
b0 2
1'
#1615000
0'
#1620000
b1 2
b100000 <
b1000 C
b10011000 -
1'
#1625000
0'
#1630000
b1000 K
b10011001 -
b10 2
b100000 &
b100000 3
b100000 G
1'
#1635000
0'
#1640000
b11 2
b1111 #
b1111 8
b1111 I
b10011010 -
1'
#1645000
0'
#1650000
b10011011 -
b100 2
b10000100 ;
1'
#1655000
0'
#1660000
b101 2
b10011100 -
1'
#1665000
0'
#1670000
b0 K
b10011101 -
b0 &
b0 3
b0 G
b0 <
b0 #
b0 8
b0 I
b0 C
b110 2
1'
#1675000
0'
#1680000
b10100100000010001000100011 !
b10100100000010001000100011 0
b10100100000010001000100011 F
b10000100 "
b10000100 :
b10000100 E
b0 2
b10011110 -
1'
#1685000
0'
#1690000
b10011111 -
b1 2
b100100 <
b1001 C
1'
#1695000
0'
#1700000
b1001 K
b10 2
b100100 &
b100100 3
b100100 G
b10100000 -
1'
#1705000
0'
#1710000
b10100001 -
b11 2
b1111 #
b1111 8
b1111 I
1'
#1715000
0'
#1720000
b100 2
b10001000 ;
b10100010 -
1'
#1725000
0'
#1730000
b10100011 -
b101 2
1'
#1735000
0'
#1740000
b0 K
b0 &
b0 3
b0 G
b0 <
b0 #
b0 8
b0 I
b0 C
b110 2
b10100100 -
1'
#1745000
0'
#1750000
b10101000000010010000100011 !
b10101000000010010000100011 0
b10101000000010010000100011 F
b10001000 "
b10001000 :
b10001000 E
b10100101 -
b0 2
1'
#1755000
0'
#1760000
b1 2
b101000 <
b1010 C
b10100110 -
1'
#1765000
0'
#1770000
b1010 K
b10100111 -
b10 2
b101000 &
b101000 3
b101000 G
1'
#1775000
0'
#1780000
b11 2
b1111 #
b1111 8
b1111 I
b10101000 -
1'
#1785000
0'
#1790000
b10101001 -
b100 2
b10001100 ;
1'
#1795000
0'
#1800000
b101 2
b10101010 -
1'
#1805000
0'
#1810000
b0 K
b10101011 -
b0 &
b0 3
b0 G
b0 <
b0 #
b0 8
b0 I
b0 C
b110 2
1'
#1815000
0'
#1820000
b10101100000010011000100011 !
b10101100000010011000100011 0
b10101100000010011000100011 F
b10001100 "
b10001100 :
b10001100 E
b0 2
b10101100 -
1'
#1825000
0'
#1830000
b10101101 -
b1 2
b101100 <
b1011 C
1'
#1835000
0'
#1840000
b1011 K
b10 2
b101100 &
b101100 3
b101100 G
b10101110 -
1'
#1845000
0'
#1850000
b10101111 -
b11 2
b1111 #
b1111 8
b1111 I
1'
#1855000
0'
#1860000
b100 2
b10010000 ;
b10110000 -
1'
#1865000
0'
#1870000
b10110001 -
b101 2
1'
#1875000
0'
#1880000
b0 K
b0 &
b0 3
b0 G
b0 <
b0 #
b0 8
b0 I
b0 C
b110 2
b10110010 -
1'
#1885000
0'
#1890000
b10110000000010100000100011 !
b10110000000010100000100011 0
b10110000000010100000100011 F
b10010000 "
b10010000 :
b10010000 E
b10110011 -
b0 2
1'
#1895000
0'
#1900000
b1 2
b110000 <
b1100 C
b10110100 -
1'
#1905000
0'
#1910000
b1100 K
b10110101 -
b10 2
b110000 &
b110000 3
b110000 G
1'
#1915000
0'
#1920000
b11 2
b1111 #
b1111 8
b1111 I
b10110110 -
1'
#1925000
0'
#1930000
b10110111 -
b100 2
b10010100 ;
1'
#1935000
0'
#1940000
b101 2
b10111000 -
1'
#1945000
0'
#1950000
b0 K
b10111001 -
b0 &
b0 3
b0 G
b0 <
b0 #
b0 8
b0 I
b0 C
b110 2
1'
#1955000
0'
#1960000
b10110100000010101000100011 !
b10110100000010101000100011 0
b10110100000010101000100011 F
b10010100 "
b10010100 :
b10010100 E
b0 2
b10111010 -
1'
#1965000
0'
#1970000
b10111011 -
b1 2
b110100 <
b1101 C
1'
#1975000
0'
#1980000
b1101 K
b10 2
b110100 &
b110100 3
b110100 G
b10111100 -
1'
#1985000
0'
#1990000
b10111101 -
b11 2
b1111 #
b1111 8
b1111 I
1'
#1995000
0'
#2000000
b100 2
b10011000 ;
b10111110 -
1'
#2005000
0'
#2010000
b10111111 -
b101 2
1'
#2015000
0'
#2020000
b0 K
b0 &
b0 3
b0 G
b0 <
b0 #
b0 8
b0 I
b0 C
b110 2
b11000000 -
1'
#2025000
0'
#2030000
b10111000000010110000100011 !
b10111000000010110000100011 0
b10111000000010110000100011 F
b10011000 "
b10011000 :
b10011000 E
b11000001 -
b0 2
1'
#2035000
0'
#2040000
b1 2
b111000 <
b1110 C
b11000010 -
1'
#2045000
0'
#2050000
b1110 K
b11000011 -
b10 2
b111000 &
b111000 3
b111000 G
1'
#2055000
0'
#2060000
b11 2
b1111 #
b1111 8
b1111 I
b11000100 -
1'
#2065000
0'
#2070000
b11000101 -
b100 2
b10011100 ;
1'
#2075000
0'
#2080000
b101 2
b11000110 -
1'
#2085000
0'
#2090000
b0 K
b11000111 -
b0 &
b0 3
b0 G
b0 <
b0 #
b0 8
b0 I
b0 C
b110 2
1'
#2095000
0'
#2100000
b10111100000010111000100011 !
b10111100000010111000100011 0
b10111100000010111000100011 F
b10011100 "
b10011100 :
b10011100 E
b0 2
b11001000 -
1'
#2105000
0'
#2110000
b11001001 -
b1 2
b111100 <
b1111 C
1'
#2115000
0'
#2120000
b1111 K
b10 2
b111100 &
b111100 3
b111100 G
b11001010 -
1'
#2125000
0'
#2130000
b11001011 -
b11 2
b1111 #
b1111 8
b1111 I
1'
#2135000
0'
#2140000
b100 2
b10100000 ;
b11001100 -
1'
#2145000
0'
#2150000
b11001101 -
b101 2
1'
#2155000
0'
#2160000
b0 K
b0 &
b0 3
b0 G
b0 <
b0 #
b0 8
b0 I
b0 C
b110 2
b11001110 -
1'
#2165000
0'
#2170000
b101000000000010000000100011 !
b101000000000010000000100011 0
b101000000000010000000100011 F
b10100000 "
b10100000 :
b10100000 E
b11001111 -
b0 2
1'
#2175000
0'
#2180000
b1 2
b1000000 <
b10000 C
b11010000 -
1'
#2185000
0'
#2190000
b10000 K
b11010001 -
b10 2
b1000000 &
b1000000 3
b1000000 G
1'
#2195000
0'
#2200000
b11 2
b1111 #
b1111 8
b1111 I
b11010010 -
1'
#2205000
0'
#2210000
b11010011 -
b100 2
b10100100 ;
1'
#2215000
0'
#2220000
b101 2
b11010100 -
1'
#2225000
0'
#2230000
b0 K
b11010101 -
b0 &
b0 3
b0 G
b0 <
b0 #
b0 8
b0 I
b0 C
b110 2
1'
#2235000
0'
#2240000
b101000100000010001000100011 !
b101000100000010001000100011 0
b101000100000010001000100011 F
b10100100 "
b10100100 :
b10100100 E
b0 2
b11010110 -
1'
#2245000
0'
#2250000
b11010111 -
b1 2
b1000100 <
b10001 C
1'
#2255000
0'
#2260000
b10001 K
b10 2
b1000100 &
b1000100 3
b1000100 G
b11011000 -
1'
#2265000
0'
#2270000
b11011001 -
b11 2
b1111 #
b1111 8
b1111 I
1'
#2275000
0'
#2280000
b100 2
b10101000 ;
b11011010 -
1'
#2285000
0'
#2290000
b11011011 -
b101 2
1'
#2295000
0'
#2300000
b0 K
b0 &
b0 3
b0 G
b0 <
b0 #
b0 8
b0 I
b0 C
b110 2
b11011100 -
1'
#2305000
0'
#2310000
b101001000000010010000100011 !
b101001000000010010000100011 0
b101001000000010010000100011 F
b10101000 "
b10101000 :
b10101000 E
b11011101 -
b0 2
1'
#2315000
0'
#2320000
b1 2
b1001000 <
b10010 C
b11011110 -
1'
#2325000
0'
#2330000
b10010 K
b11011111 -
b10 2
b1001000 &
b1001000 3
b1001000 G
1'
#2335000
0'
#2340000
b11 2
b1111 #
b1111 8
b1111 I
b11100000 -
1'
#2345000
0'
#2350000
b11100001 -
b100 2
b10101100 ;
1'
#2355000
0'
#2360000
b101 2
b11100010 -
1'
#2365000
0'
#2370000
b0 K
b11100011 -
b0 &
b0 3
b0 G
b0 <
b0 #
b0 8
b0 I
b0 C
b110 2
1'
#2375000
0'
#2380000
b101001100000010011000100011 !
b101001100000010011000100011 0
b101001100000010011000100011 F
b10101100 "
b10101100 :
b10101100 E
b0 2
b11100100 -
1'
#2385000
0'
#2390000
b11100101 -
b1 2
b1001100 <
b10011 C
1'
#2395000
0'
#2400000
b10011 K
b10 2
b1001100 &
b1001100 3
b1001100 G
b11100110 -
1'
#2405000
0'
#2410000
b11100111 -
b11 2
b1111 #
b1111 8
b1111 I
1'
#2415000
0'
#2420000
b100 2
b10110000 ;
b11101000 -
1'
#2425000
0'
#2430000
b11101001 -
b101 2
1'
#2435000
0'
#2440000
b0 K
b0 &
b0 3
b0 G
b0 <
b0 #
b0 8
b0 I
b0 C
b110 2
b11101010 -
1'
#2445000
0'
#2450000
b101010000000010100000100011 !
b101010000000010100000100011 0
b101010000000010100000100011 F
b10110000 "
b10110000 :
b10110000 E
b11101011 -
b0 2
1'
#2455000
0'
#2460000
b1 2
b1010000 <
b10100 C
b11101100 -
1'
#2465000
0'
#2470000
b10100 K
b11101101 -
b10 2
b1010000 &
b1010000 3
b1010000 G
1'
#2475000
0'
#2480000
b11 2
b1111 #
b1111 8
b1111 I
b11101110 -
1'
#2485000
0'
#2490000
b11101111 -
b100 2
b10110100 ;
1'
#2495000
0'
#2500000
b101 2
b11110000 -
1'
#2505000
0'
#2510000
b0 K
b11110001 -
b0 &
b0 3
b0 G
b0 <
b0 #
b0 8
b0 I
b0 C
b110 2
1'
#2515000
0'
#2520000
b101010100000010101000100011 !
b101010100000010101000100011 0
b101010100000010101000100011 F
b10110100 "
b10110100 :
b10110100 E
b0 2
b11110010 -
1'
#2525000
0'
#2530000
b11110011 -
b1 2
b1010100 <
b10101 C
1'
#2535000
0'
#2540000
b10101 K
b10 2
b1010100 &
b1010100 3
b1010100 G
b11110100 -
1'
#2545000
0'
#2550000
b11110101 -
b11 2
b1111 #
b1111 8
b1111 I
1'
#2555000
0'
#2560000
b100 2
b10111000 ;
b11110110 -
1'
#2565000
0'
#2570000
b11110111 -
b101 2
1'
#2575000
0'
#2580000
b0 K
b0 &
b0 3
b0 G
b0 <
b0 #
b0 8
b0 I
b0 C
b110 2
b11111000 -
1'
#2585000
0'
#2590000
b101011000000010110000100011 !
b101011000000010110000100011 0
b101011000000010110000100011 F
b10111000 "
b10111000 :
b10111000 E
b11111001 -
b0 2
1'
#2595000
0'
#2600000
b1 2
b1011000 <
b10110 C
b11111010 -
1'
#2605000
0'
#2610000
b10110 K
b11111011 -
b10 2
b1011000 &
b1011000 3
b1011000 G
1'
#2615000
0'
#2620000
b11 2
b1111 #
b1111 8
b1111 I
b11111100 -
1'
#2625000
0'
#2630000
b11111101 -
b100 2
b10111100 ;
1'
#2635000
0'
#2640000
b101 2
b11111110 -
1'
#2645000
0'
#2650000
b0 K
b11111111 -
b0 &
b0 3
b0 G
b0 <
b0 #
b0 8
b0 I
b0 C
b110 2
1'
#2655000
0'
#2660000
b101011100000010111000100011 !
b101011100000010111000100011 0
b101011100000010111000100011 F
b10111100 "
b10111100 :
b10111100 E
b0 2
b100000000 -
1'
#2665000
0'
#2670000
b100000001 -
b1 2
b1011100 <
b10111 C
1'
#2675000
0'
#2680000
b10111 K
b10 2
b1011100 &
b1011100 3
b1011100 G
b100000010 -
1'
#2685000
0'
#2690000
b100000011 -
b11 2
b1111 #
b1111 8
b1111 I
1'
#2695000
0'
#2700000
b100 2
b11000000 ;
b100000100 -
1'
#2705000
0'
#2710000
b100000101 -
b101 2
1'
#2715000
0'
#2720000
b0 K
b0 &
b0 3
b0 G
b0 <
b0 #
b0 8
b0 I
b0 C
b110 2
b100000110 -
1'
#2725000
0'
#2730000
b111100000000010000000100011 !
b111100000000010000000100011 0
b111100000000010000000100011 F
b11000000 "
b11000000 :
b11000000 E
b100000111 -
b0 2
1'
#2735000
0'
#2740000
b1 2
b1100000 <
b11000 C
b100001000 -
1'
#2745000
0'
#2750000
b11000 K
b100001001 -
b10 2
b1100000 &
b1100000 3
b1100000 G
1'
#2755000
0'
#2760000
b11 2
b1111 #
b1111 8
b1111 I
b100001010 -
1'
#2765000
0'
#2770000
b100001011 -
b100 2
b11000100 ;
1'
#2775000
0'
#2780000
b101 2
b100001100 -
1'
#2785000
0'
#2790000
b0 K
b100001101 -
b0 &
b0 3
b0 G
b0 <
b0 #
b0 8
b0 I
b0 C
b110 2
1'
#2795000
0'
#2800000
b111100100000010001000100011 !
b111100100000010001000100011 0
b111100100000010001000100011 F
b11000100 "
b11000100 :
b11000100 E
b0 2
b100001110 -
1'
#2805000
0'
#2810000
b100001111 -
b1 2
b1100100 <
b11001 C
1'
#2815000
0'
#2820000
b11001 K
b10 2
b1100100 &
b1100100 3
b1100100 G
b100010000 -
1'
#2825000
0'
#2830000
b100010001 -
b11 2
b1111 #
b1111 8
b1111 I
1'
#2835000
0'
#2840000
b100 2
b11001000 ;
b100010010 -
1'
#2845000
0'
#2850000
b100010011 -
b101 2
1'
#2855000
0'
#2860000
b0 K
b0 &
b0 3
b0 G
b0 <
b0 #
b0 8
b0 I
b0 C
b110 2
b100010100 -
1'
#2865000
0'
#2870000
b111101000000010010000100011 !
b111101000000010010000100011 0
b111101000000010010000100011 F
b11001000 "
b11001000 :
b11001000 E
b100010101 -
b0 2
1'
#2875000
0'
#2880000
b1 2
b1101000 <
b11010 C
b100010110 -
1'
#2885000
0'
#2890000
b11010 K
b100010111 -
b10 2
b1101000 &
b1101000 3
b1101000 G
1'
#2895000
0'
#2900000
b11 2
b1111 #
b1111 8
b1111 I
b100011000 -
1'
#2905000
0'
#2910000
b100011001 -
b100 2
b11001100 ;
1'
#2915000
0'
#2920000
b101 2
b100011010 -
1'
#2925000
0'
#2930000
b0 K
b100011011 -
b0 &
b0 3
b0 G
b0 <
b0 #
b0 8
b0 I
b0 C
b110 2
1'
#2935000
0'
